Introdução ao R aplicado ao Geoprocessamento
…
Manipulação de dados com dplyr

Também conseguimos agrupar por múltiplas variáveis, basta passar mais argumentos para a função group_by()

dados |> 
  dplyr::group_by(month, day) |> 
  dplyr::summarise(n = n())

# A tibble: 365 × 3
# Groups:   month [12]
   month   day     n
   <int> <int> <int>
 1     1     1   842
 2     1     2   943
 3     1     3   914
 4     1     4   915
 5     1     5   720
 6     1     6   832
 7     1     7   933
 8     1     8   899
 9     1     9   902
10     1    10   932
# ℹ 355 more rows
…
